{
    "$schema": "http://json-schema.org/draft-07/schema#",
    "type": "string",
    "description": "The posture of the subject (for example, during a clinical measurement). This value set is not exhaustive.",
    "enum": [
        "sitting",
        "lying down",
        "standing",
        "semi-recumbent"
    ]
}
